Week-5
…
df<-tbl_df(hflights)
class(df)

## [1] "tbl_df"     "tbl"        "data.frame"

Basic Manipulations of Data

Much work with data involvces subsetting, defining new columns, sorting or otherwise manipulating the data. dplyr has five functions (verbs) for such actions, that all start with a data.frame or tbl_df and produce another one.

Filter

f_df <- filter(df, Month == 1, UniqueCarrier == "AA")
f_df

## # A tibble: 273 x 21
##     Year Month DayofMonth DayOfWeek DepTime ArrTime UniqueCarrier FlightNum
##    <int> <int>      <int>     <int>   <int>   <int> <chr>             <int>
##  1  2011     1          1         6    1400    1500 AA                  428
##  2  2011     1          2         7    1401    1501 AA                  428
##  3  2011     1          3         1    1352    1502 AA                  428
##  4  2011     1          4         2    1403    1513 AA                  428
##  5  2011     1          5         3    1405    1507 AA                  428
##  6  2011     1          6         4    1359    1503 AA                  428
##  7  2011     1          7         5    1359    1509 AA                  428
##  8  2011     1          8         6    1355    1454 AA                  428
##  9  2011     1          9         7    1443    1554 AA                  428
## 10  2011     1         10         1    1443    1553 AA                  428
## # ... with 263 more rows, and 13 more variables: TailNum <chr>,
## #   ActualElapsedTime <int>, AirTime <int>, ArrDelay <int>,
## #   DepDelay <int>, Origin <chr>, Dest <chr>, Distance <int>,
## #   TaxiIn <int>, TaxiOut <int>, Cancelled <int>, CancellationCode <chr>,
## #   Diverted <int>

Here we got the January flights for AA. This is like subset but the syntax is a little easier. We dont need &; it is added to comma separated conditions. For an or you add | explicitly.

filter(df, UniqueCarrier == "AA" | UniqueCarrier == "UA")

## # A tibble: 5,316 x 21
##     Year Month DayofMonth DayOfWeek DepTime ArrTime UniqueCarrier FlightNum
##    <int> <int>      <int>     <int>   <int>   <int> <chr>             <int>
##  1  2011     1          1         6    1400    1500 AA                  428
##  2  2011     1          2         7    1401    1501 AA                  428
##  3  2011     1          3         1    1352    1502 AA                  428
##  4  2011     1          4         2    1403    1513 AA                  428
##  5  2011     1          5         3    1405    1507 AA                  428
##  6  2011     1          6         4    1359    1503 AA                  428
##  7  2011     1          7         5    1359    1509 AA                  428
##  8  2011     1          8         6    1355    1454 AA                  428
##  9  2011     1          9         7    1443    1554 AA                  428
## 10  2011     1         10         1    1443    1553 AA                  428
## # ... with 5,306 more rows, and 13 more variables: TailNum <chr>,
## #   ActualElapsedTime <int>, AirTime <int>, ArrDelay <int>,
## #   DepDelay <int>, Origin <chr>, Dest <chr>, Distance <int>,
## #   TaxiIn <int>, TaxiOut <int>, Cancelled <int>, CancellationCode <chr>,
## #   Diverted <int>

Arrange

This function reorders the data based on specified columns

arrange(df, Month, DayofMonth, desc(AirTime))

## # A tibble: 227,496 x 21
##     Year Month DayofMonth DayOfWeek DepTime ArrTime UniqueCarrier FlightNum
##    <int> <int>      <int>     <int>   <int>   <int> <chr>             <int>
##  1  2011     1          1         6    1447    1925 CO                   77
##  2  2011     1          1         6    1145    1612 CO                   73
##  3  2011     1          1         6     942    1356 CO                    1
##  4  2011     1          1         6    1757    2043 CO                  570
##  5  2011     1          1         6    1824    2106 AS                  731
##  6  2011     1          1         6    1908    2150 CO                  567
##  7  2011     1          1         6    1506    1741 CO                  767
##  8  2011     1          1         6    1226    1459 CO                  267
##  9  2011     1          1         6    2028    2316 CO                  670
## 10  2011     1          1         6     935    1214 CO                  170
## # ... with 227,486 more rows, and 13 more variables: TailNum <chr>,
## #   ActualElapsedTime <int>, AirTime <int>, ArrDelay <int>,
## #   DepDelay <int>, Origin <chr>, Dest <chr>, Distance <int>,
## #   TaxiIn <int>, TaxiOut <int>, Cancelled <int>, CancellationCode <chr>,
## #   Diverted <int>

This could be done with order but the syntax is different.mtcars[order(mpg, -cyl),]

Select

this works like select option to subset

select(df, Year:DayOfWeek, TailNum, ActualElapsedTime)

## # A tibble: 227,496 x 6
##     Year Month DayofMonth DayOfWeek TailNum ActualElapsedTime
##  * <int> <int>      <int>     <int> <chr>               <int>
##  1  2011     1          1         6 N576AA                 60
##  2  2011     1          2         7 N557AA                 60
##  3  2011     1          3         1 N541AA                 70
##  4  2011     1          4         2 N403AA                 70
##  5  2011     1          5         3 N492AA                 62
##  6  2011     1          6         4 N262AA                 64
##  7  2011     1          7         5 N493AA                 70
##  8  2011     1          8         6 N477AA                 59
##  9  2011     1          9         7 N476AA                 71
## 10  2011     1         10         1 N504AA                 70
## # ... with 227,486 more rows
…
last(x) - The last element of vector x.

nth(x, n) - The nth element of vector x.

n() - The number of rows in the data.frame or group of observations that summarize() describes.

n_distinct(x) - The number of unique values in vector x.

Pipes

Before moving to group by, it worths mentioning the Pipes. What if you wanted to select and filter? There are three ways to do this: use intermediate steps, nested functions, or pipes. With the intermediate steps, you essentially create a temporary data frame and use that as input to the next function. This can clutter up your workspace with lots of objects. You can also nest functions (i.e.one function inside of another). This is handy, but can be difficult to read if too many functions are nested as the process from inside out. The last option, pipes, are a fairly recent addition to R. Pipes let you take the output of one function and send it directly to the next, which is useful when you need to many things to the same data set. Pipes in R look like %>% and are made available via the magrittr package installed as part of dplyr.

df%>%filter(ArrDelay>7.09)%>%select(TailNum,UniqueCarrier,ArrDelay)

## # A tibble: 68,931 x 3
##    TailNum UniqueCarrier ArrDelay
##    <chr>   <chr>            <int>
##  1 N476AA  AA                  44
##  2 N504AA  AA                  43
##  3 N565AA  AA                  29
##  4 N518AA  AA                  84
##  5 N425AA  AA                  72
##  6 N505AA  AA                  43
##  7 N546AA  AA                   8
##  8 N545AA  AA                  29
##  9 N403AA  AA                  11
## 10 N4XGAA  AA                  47
## # ... with 68,921 more rows

We used the pipe to send the df data set first through filter, to keep rows where arrival delay is greater than 7.09, and then through select to keep the TailNum, UniqueCarrier and ArrDelay columns. When the data frame is being passed to the filter() and select() functions through a pipe, we dont need to include it as an argument to these functions anymore.

If we wanted to create a new object with this smaller version of the data we could do so by assigning it a new name:

new_df<-df%>%filter(ArrDelay>7.09)%>%select(TailNum,UniqueCarrier,ArrDelay)
new_df

## # A tibble: 68,931 x 3
##    TailNum UniqueCarrier ArrDelay
##    <chr>   <chr>            <int>
##  1 N476AA  AA                  44
##  2 N504AA  AA                  43
##  3 N565AA  AA                  29
##  4 N518AA  AA                  84
##  5 N425AA  AA                  72
##  6 N505AA  AA                  43
##  7 N546AA  AA                   8
##  8 N545AA  AA                  29
##  9 N403AA  AA                  11
## 10 N4XGAA  AA                  47
## # ... with 68,921 more rows

Split-apply-combine data analysis

Many data analysis tasks can be approached using the split-apply-combine paradigm: split the data into groups, apply some analysis to each group, and then combine the results. dplyr makes this very easy through the use of the group_by() function, which splits the data into groups. When the data is grouped in this way summarize() can be used to collapse each group into a single-row summary. summarize() does this by applying an aggregating or summary function to each group. For example, if we wanted to group by Tail Number and find the number of rows of data for each group, we would do:

df%>%group_by(TailNum)%>%summarise(n=n())

## # A tibble: 3,320 x 2
##    TailNum     n
##    <chr>   <int>
##  1 ""        795
##  2 N0EGMQ     40
##  3 N10156    317
##  4 N10575     94
##  5 N11106    308
##  6 N11107    345
##  7 N11109    331
##  8 N11113    282
##  9 N11119    130
## 10 N11121    333
## # ... with 3,310 more rows

Here the summary function used was n() to find the count for each group. We can also apply many other functions to individual columns to get other summary statistics. For example, in the R base package we can use built-in functions like n_distinct, mean, median, min, and max

Grouping by multiple variables

When we do this we have the ability to easily compute summary stats by different combinations of the grouping variables.

Suppose we group the data into daily flights.

daily <- group_by(df, Year, Month, DayofMonth)
# To get the number of flights per day
per_day <- summarize(daily, number_flights = n())
per_day

## # A tibble: 365 x 4
## # Groups:   Year, Month [?]
##     Year Month DayofMonth number_flights
##    <int> <int>      <int>          <int>
##  1  2011     1          1            552
##  2  2011     1          2            678
##  3  2011     1          3            702
##  4  2011     1          4            583
##  5  2011     1          5            590
##  6  2011     1          6            660
##  7  2011     1          7            661
##  8  2011     1          8            500
##  9  2011     1          9            602
## 10  2011     1         10            659
## # ... with 355 more rows
…
